Chapter 13: Classification
…
Even if you get more conservative, probability of voting for Democratic candidate bends back (Jason)

Optional (very hard!): Interpret the estimate for (Intercept). What does it mean? Think back to how we interpreted regression intercepts in the last two weeks. You might need to use the qlogis() function.

Scene 3

Prompt: Its time to get some individual estimates from our model.

Use augment() from the broom package to get predictions from our model. You will need to set the type.predict and data arguments correctly.

model_1 %>% 
  augment(type.predict = "response") 

## # A tibble: 6,653 x 10
##    dvote gender income .fitted .se.fit .resid     .hat .sigma .cooksd .std.resid
##    <int> <fct>   <int>   <dbl>   <dbl>  <dbl>    <dbl>  <dbl>   <dbl>      <dbl>
##  1     0 male        3   0.431 0.00908 -1.06  0.000336   1.16 8.50e-5     -1.06 
##  2     1 female      4   0.400 0.00983  1.35  0.000402   1.16 2.02e-4      1.35 
##  3     0 male        4   0.362 0.00931 -0.948 0.000375   1.16 7.11e-5     -0.949
##  4     0 male        4   0.362 0.00931 -0.948 0.000375   1.16 7.11e-5     -0.949
##  5     0 female      1   0.613 0.0145  -1.38  0.000882   1.16 4.66e-4     -1.38 
##  6     0 female      5   0.333 0.0128  -0.900 0.000739   1.16 1.23e-4     -0.900
##  7     0 male        4   0.362 0.00931 -0.948 0.000375   1.16 7.11e-5     -0.949
##  8     0 female      4   0.400 0.00983 -1.01  0.000402   1.16 8.94e-5     -1.01 
##  9     0 male        3   0.431 0.00908 -1.06  0.000336   1.16 8.50e-5     -1.06 
## 10     1 female      2   0.543 0.0107   1.11  0.000464   1.16 1.31e-4      1.11 
## #  with 6,643 more rows
…
